<?xml version="1.0" standalone="no"?>
<!DOCTYPE svg PUBLIC "-//W3C//DTD SVG 20010904//EN"
 "http://www.w3.org/TR/2001/REC-SVG-20010904/DTD/svg10.dtd">
<svg version="1.0" xmlns="http://www.w3.org/2000/svg"
 width="1169.000000pt" height="1280.000000pt" viewBox="0 0 1169.000000 1280.000000"
 preserveAspectRatio="xMidYMid meet">
<metadata>
Created by potrace 1.15, written by Peter Selinger 2001-2017
</metadata>
<g transform="translate(0.000000,1280.000000) scale(0.100000,-0.100000)"
fill="#000000" stroke="none">
<path d="M9410 12639 c-201 -88 -628 -275 -950 -416 -322 -141 -588 -259 -592
-262 -6 -6 900 -542 926 -549 6 -1 203 81 436 184 234 102 661 290 950 416
289 127 529 233 534 236 5 2 0 9 -10 15 -11 5 -218 126 -462 269 -243 142
-448 261 -455 263 -6 3 -176 -68 -377 -156z"/>
<path d="M10295 12025 c-253 -112 -680 -299 -948 -417 -269 -118 -489 -218
-489 -223 0 -5 204 -128 453 -275 l454 -266 5 -351 5 -350 630 276 c347 152
777 341 958 420 l327 144 0 358 c0 237 -3 359 -10 359 -6 0 -210 117 -453 260
-244 142 -450 261 -458 264 -8 2 -221 -87 -474 -199z"/>
<path d="M7370 11745 c-239 -105 -669 -294 -955 -420 -286 -125 -521 -228
-522 -230 -3 -2 917 -542 932 -547 15 -5 1926 835 1917 843 -9 9 -931 549
-935 548 -1 -1 -198 -88 -437 -194z"/>
<path d="M7838 10946 c-527 -231 -958 -423 -958 -426 1 -3 207 -125 458 -271
l457 -267 3 -352 c2 -275 5 -351 15 -347 6 2 251 109 542 237 292 128 715 313
940 412 226 99 413 183 417 187 4 3 8 164 8 356 l1 350 -448 263 c-246 145
-455 267 -463 271 -10 5 -335 -133 -972 -413z"/>
<path d="M5334 10852 c-269 -120 -696 -307 -947 -417 -251 -110 -457 -202
-457 -205 0 -3 210 -129 466 -279 l466 -273 342 150 c187 83 616 270 951 417
336 147 613 271 617 274 9 8 -914 551 -934 550 -7 -1 -234 -98 -504 -217z"/>
<path d="M11218 10752 l-468 -206 0 -359 c0 -283 3 -358 13 -354 77 32 914
402 920 407 4 3 6 166 5 361 l-3 356 -467 -205z"/>
<path d="M10150 10283 c-294 -129 -721 -317 -948 -416 l-413 -182 -2 -358 c-1
-196 0 -357 3 -357 3 0 172 73 375 162 204 89 633 278 955 419 l585 256 3 357
c2 282 0 356 -10 355 -7 0 -254 -106 -548 -236z"/>
<path d="M6305 10274 c-280 -124 -706 -311 -945 -416 -239 -105 -438 -193
-442 -197 -4 -3 200 -128 452 -276 l460 -269 0 -348 c0 -191 4 -348 9 -348 4
0 276 117 602 260 327 144 755 331 952 417 l357 157 0 337 c0 186 2 344 5 351
4 10 -129 93 -458 286 -256 150 -468 272 -473 271 -5 0 -238 -102 -519 -225z"/>
<path d="M3265 9944 c-330 -145 -755 -332 -945 -415 -190 -83 -349 -155 -353
-159 -7 -6 869 -528 917 -546 8 -3 235 91 503 208 268 118 698 306 955 419
257 112 468 206 468 209 0 6 -919 544 -934 547 -6 1 -281 -117 -611 -263z"/>
<path d="M11249 10022 c-234 -103 -662 -290 -952 -417 l-526 -230 -1 -359 c0
-337 1 -358 18 -352 9 4 441 192 959 419 l943 412 0 358 c0 196 -3 357 -7 357
-5 0 -200 -85 -434 -188z"/>
<path d="M8110 9389 c-338 -149 -766 -337 -950 -418 l-335 -147 -3 -362 -2
-361 62 29 c63 29 1634 718 1781 781 l77 33 0 358 c0 197 -3 358 -7 357 -5 0
-285 -122 -623 -270z"/>
<path d="M4440 9456 c-228 -101 -649 -285 -935 -411 -286 -125 -530 -233 -543
-239 -22 -11 11 -32 437 -282 l461 -269 0 -354 c0 -278 3 -352 13 -348 6 3
329 145 717 315 388 170 813 357 945 415 l240 105 5 353 c3 230 2 357 -5 362
-12 9 -915 537 -918 536 -1 0 -189 -82 -417 -183z"/>
<path d="M11218 9262 l-468 -205 0 -359 0 -358 33 13 c113 48 893 392 900 397
4 3 6 166 5 362 l-3 355 -467 -205z"/>
<path d="M1600 9213 c-1004 -442 -1520 -668 -1557 -682 l-43 -16 0 -352 0
-353 23 -14 c12 -8 222 -132 467 -275 l445 -261 3 350 2 351 23 8 c21 9 1571
688 1775 778 82 37 101 49 90 58 -10 9 -890 527 -918 540 -3 1 -142 -58 -310
-132z"/>
<path d="M8895 8989 c-451 -198 -881 -386 -955 -419 l-135 -59 -3 -360 -2
-360 42 18 c44 19 319 139 1311 575 308 134 561 246 563 249 2 2 3 164 2 360
l-3 356 -820 -360z"/>
<path d="M10530 8964 c-91 -40 -518 -229 -950 -418 l-785 -344 -5 -361 c-3
-199 -4 -361 -4 -361 1 0 231 100 510 223 280 123 713 313 962 422 l452 198 0
359 c0 197 -3 358 -7 357 -5 0 -82 -34 -173 -75z"/>
<path d="M6400 8638 c-1186 -521 -1543 -678 -1546 -681 -3 -2 -3 -164 -2 -360
l3 -355 190 83 c105 46 397 174 650 285 253 111 595 261 760 333 165 71 303
133 308 137 4 3 6 166 5 362 l-3 356 -365 -160z"/>
<path d="M1965 8369 c-500 -220 -927 -405 -948 -413 l-38 -13 1 -349 c0 -328
1 -350 19 -365 10 -8 214 -129 452 -269 239 -139 437 -258 441 -263 3 -6 389
158 920 391 502 220 934 410 960 421 l47 20 3 350 3 350 -462 271 c-254 148
-468 270 -475 270 -7 -1 -422 -181 -923 -401z"/>
<path d="M11500 8646 c-102 -45 -533 -234 -957 -421 l-773 -339 0 -359 c0
-283 3 -358 13 -354 6 3 221 97 477 210 256 112 679 297 940 412 261 114 478
211 483 214 4 4 6 167 5 363 l-3 355 -185 -81z"/>
<path d="M7385 8327 c-536 -236 -812 -357 -1202 -528 l-353 -154 0 -357 c0
-197 2 -358 4 -358 4 0 184 78 1191 520 198 87 439 193 535 235 96 42 178 80
183 84 4 4 6 167 5 362 l-3 354 -360 -158z"/>
<path d="M8165 7927 c-302 -134 -729 -321 -947 -417 l-398 -174 0 -358 c0
-197 2 -358 4 -358 2 0 43 18 92 39 73 32 1640 719 1782 781 l42 19 0 355 c0
279 -3 356 -12 355 -7 0 -260 -109 -563 -242z"/>
<path d="M11215 7777 l-460 -202 -3 -359 c-2 -339 -1 -358 15 -352 10 4 221
95 470 204 l452 197 1 358 c0 196 -3 357 -7 357 -5 0 -215 -92 -468 -203z"/>
<path d="M4315 7724 c-253 -111 -679 -299 -947 -416 l-488 -213 0 -357 c0
-197 3 -358 6 -358 3 0 333 143 733 319 399 175 828 363 953 417 l227 99 1
358 c0 280 -3 357 -12 356 -7 -1 -220 -93 -473 -205z"/>
<path d="M9540 7786 c-91 -40 -435 -191 -765 -336 -330 -145 -683 -300 -785
-344 l-185 -82 -3 -358 c-2 -338 -1 -358 15 -353 10 2 340 146 733 319 393
173 817 359 942 414 l228 99 0 358 c0 196 -3 357 -7 357 -5 0 -82 -34 -173
-74z"/>
<path d="M2 7414 l3 -356 955 -559 c525 -307 957 -554 960 -550 3 5 210 99
460 209 l455 199 3 357 c1 216 -1 356 -7 356 -5 0 -177 -74 -383 -164 -205
-90 -412 -180 -459 -201 l-86 -37 -942 551 c-518 303 -946 551 -952 551 -6 0
-8 -133 -7 -356z"/>
<path d="M5645 7564 c-66 -29 -493 -218 -950 -418 l-830 -364 -3 -356 c-1
-215 1 -356 7 -356 9 0 277 117 1404 612 l508 223 2 358 c1 233 -1 357 -8 356
-5 0 -64 -25 -130 -55z"/>
<path d="M10205 7334 c-269 -118 -698 -306 -952 -417 l-462 -202 -3 -358 c-2
-196 1 -357 5 -357 4 0 187 78 405 174 1209 530 1475 647 1493 656 18 10 19
25 19 365 0 195 -3 355 -7 355 -5 0 -228 -97 -498 -216z"/>
<path d="M6440 7170 c-173 -77 -601 -265 -950 -418 l-635 -279 -3 -360 -2
-361 562 247 c310 136 742 326 960 422 l398 174 0 358 c0 196 -3 357 -7 356
-5 0 -150 -63 -323 -139z"/>
<path d="M11340 7090 c-184 -81 -612 -270 -950 -418 l-615 -270 -3 -362 c-1
-199 1 -359 6 -357 4 3 255 114 557 246 303 133 731 321 953 418 l402 177 0
358 c0 197 -3 358 -7 357 -5 0 -159 -67 -343 -149z"/>
<path d="M2 6674 l3 -358 465 -273 465 -272 3 356 c1 196 -1 360 -5 364 -12
10 -897 527 -917 535 -15 6 -16 -22 -14 -352z"/>
<path d="M7215 6766 c-1128 -495 -1341 -589 -1362 -597 l-23 -9 0 -360 0 -360
33 14 c17 7 289 126 602 264 314 137 730 320 925 406 l355 155 3 181 c1 99 1
261 0 359 l-3 179 -530 -232z"/>
<path d="M3375 6569 c-885 -391 -1454 -639 -1465 -639 -6 0 -216 119 -465 265
-249 146 -456 265 -459 265 -4 0 -5 -161 -4 -357 l3 -358 120 -71 c523 -310
809 -473 819 -465 6 5 191 88 411 184 220 96 607 266 860 377 253 111 497 218
543 238 l82 35 0 358 c0 198 -3 359 -7 358 -5 0 -201 -86 -438 -190z"/>
<path d="M8280 6491 c-245 -108 -670 -295 -945 -415 -275 -121 -503 -222 -508
-226 -4 -3 -6 -166 -5 -362 l3 -355 120 52 c66 29 399 176 740 325 341 150
718 315 838 367 l217 96 0 358 c0 198 -3 359 -7 358 -5 -1 -208 -90 -453 -198z"/>
<path d="M11218 6293 l-468 -206 0 -360 c0 -283 3 -358 13 -354 6 3 203 90
437 192 234 103 440 194 458 201 l32 14 0 360 c0 198 -1 360 -2 359 -2 0 -213
-93 -470 -206z"/>
<path d="M4665 6390 c-71 -31 -502 -220 -957 -420 l-828 -363 0 -360 c0 -283
3 -358 13 -354 6 3 208 92 447 197 239 105 662 291 940 412 278 122 508 224
513 228 4 3 6 166 5 362 l-3 355 -130 -57z"/>
<path d="M9495 6279 c-121 -53 -422 -185 -670 -294 -247 -108 -579 -254 -737
-323 l-288 -126 0 -359 c0 -283 3 -358 13 -354 6 3 311 136 677 297 366 160
789 346 940 412 151 66 278 123 283 127 4 4 6 167 5 362 l-3 355 -220 -97z"/>
<path d="M0 5932 l0 -358 918 -537 c504 -295 935 -548 957 -561 22 -13 42 -21
45 -16 5 8 130 64 665 298 l250 110 3 356 c1 232 -1 356 -8 356 -5 0 -215 -90
-466 -200 -366 -160 -460 -198 -475 -190 -10 6 -438 256 -950 555 -512 300
-932 545 -935 545 -2 0 -4 -161 -4 -358z"/>
<path d="M5445 5990 c-170 -75 -580 -255 -910 -400 -330 -144 -617 -271 -637
-282 l-38 -18 0 -355 c0 -195 3 -355 6 -355 3 0 240 103 527 229 287 126 709
311 937 411 228 100 424 187 435 194 19 11 20 21 20 364 0 307 -2 352 -15 351
-8 -1 -154 -63 -325 -139z"/>
<path d="M10255 5870 c-236 -104 -663 -291 -948 -417 l-518 -228 -2 -358 c-1
-196 0 -357 3 -357 2 0 252 109 555 242 302 132 732 321 955 419 l405 178 3
355 c2 282 0 356 -10 356 -7 -1 -206 -86 -443 -190z"/>
<path d="M6445 5685 c-176 -77 -607 -267 -957 -420 l-638 -280 0 -357 c0 -197
2 -358 4 -358 3 0 172 74 378 164 205 90 632 277 948 416 316 138 578 255 583
259 4 4 6 167 5 362 l-3 354 -320 -140z"/>
<path d="M11334 5601 c-181 -80 -608 -267 -947 -416 l-617 -270 0 -357 c0
-197 3 -358 6 -358 3 0 159 68 347 150 188 83 617 270 952 418 l610 268 3 357
c2 283 0 357 -10 356 -7 -1 -162 -67 -344 -148z"/>
<path d="M2 5190 l3 -361 468 -274 467 -273 0 361 -1 362 -411 240 c-227 132
-438 255 -470 273 l-58 33 2 -361z"/>
<path d="M7200 5273 c-294 -129 -722 -317 -950 -417 l-415 -182 -3 -358 c-2
-338 -1 -358 15 -353 10 2 203 86 428 185 226 99 617 271 870 382 253 111 493
216 533 233 l72 31 0 358 c0 197 -3 358 -7 357 -5 0 -249 -106 -543 -236z"/>
<path d="M3400 5093 c-1304 -576 -1488 -655 -1512 -642 -13 7 -218 126 -456
266 -238 139 -437 253 -443 253 -6 0 -8 -134 -7 -356 l3 -356 465 -273 c339
-198 468 -270 478 -262 7 5 434 195 950 421 l937 412 3 357 c2 283 0 357 -10
356 -7 -1 -191 -80 -408 -176z"/>
<path d="M8030 4894 c-382 -168 -807 -354 -944 -415 -136 -60 -252 -109 -257
-109 -5 0 -9 -158 -9 -361 0 -339 1 -361 18 -356 20 6 1852 811 1882 827 19
10 20 21 20 365 0 195 -3 355 -7 355 -5 0 -321 -138 -703 -306z"/>
<path d="M11600 4970 c-47 -20 -257 -112 -467 -205 l-383 -168 0 -359 c0 -197
3 -357 8 -355 4 2 212 93 462 202 250 109 458 201 463 205 4 3 6 166 5 362
l-3 355 -85 -37z"/>
<path d="M4700 4920 c-63 -28 -1369 -602 -1777 -780 l-43 -19 0 -360 0 -360
58 26 c72 32 1471 646 1695 744 l167 73 0 358 c0 197 -3 358 -7 357 -5 0 -46
-18 -93 -39z"/>
<path d="M9320 4718 c-212 -94 -639 -282 -950 -418 l-565 -248 -3 -361 -2
-360 42 18 c24 10 378 166 788 346 410 180 823 361 918 402 l172 76 0 359 c0
197 -3 358 -7 357 -5 -1 -181 -78 -393 -171z"/>
<path d="M2 4443 l3 -358 952 -557 953 -557 32 18 c18 10 222 101 453 202 231
100 426 187 433 192 9 7 12 92 12 363 0 195 -2 354 -5 354 -3 0 -213 -91 -468
-203 l-463 -203 -944 553 c-520 304 -948 553 -953 553 -4 0 -6 -161 -5 -357z"/>
<path d="M5480 4519 c-267 -118 -1247 -548 -1513 -664 l-107 -47 2 -357 c2
-230 7 -355 13 -354 6 1 260 112 565 246 305 134 728 320 940 412 212 93 388
171 393 175 8 7 15 720 7 719 -3 0 -138 -59 -300 -130z"/>
<path d="M10060 4299 c-349 -154 -777 -342 -950 -418 l-315 -138 -3 -362 c-1
-203 2 -360 6 -357 8 5 472 209 1550 681 l362 159 0 358 c0 197 -3 358 -7 357
-5 0 -294 -127 -643 -280z"/>
<path d="M6240 4109 c-289 -127 -718 -316 -955 -420 l-430 -188 -3 -360 -2
-360 77 33 c43 19 170 74 283 124 463 203 1041 457 1293 567 l267 118 0 358
c0 198 -1 359 -2 359 -2 0 -239 -104 -528 -231z"/>
<path d="M2 3703 l3 -358 430 -252 c237 -139 447 -262 468 -273 l37 -21 0 359
0 360 -463 271 c-255 149 -467 271 -470 271 -4 0 -6 -161 -5 -357z"/>
<path d="M7265 3815 c-264 -116 -695 -305 -957 -420 l-478 -209 0 -359 c0
-283 3 -358 13 -354 6 2 199 87 427 187 228 100 651 285 940 412 289 127 528
233 533 237 4 4 6 167 5 362 l-3 355 -480 -211z"/>
<path d="M3445 3626 c-192 -85 -617 -271 -943 -414 l-592 -260 -453 265 c-248
146 -458 267 -465 270 -9 4 -12 -70 -12 -351 l0 -356 37 -24 c21 -14 231 -137
466 -275 414 -242 430 -250 455 -237 15 8 378 168 807 356 429 188 845 370
925 405 l145 64 3 356 c2 281 0 355 -10 355 -7 0 -170 -70 -363 -154z"/>
<path d="M8335 3542 c-209 -92 -635 -280 -947 -416 l-568 -249 0 -360 c0 -283
3 -358 13 -354 6 3 233 102 502 221 270 118 695 305 945 414 l455 200 3 356
c2 282 0 356 -10 355 -7 0 -184 -75 -393 -167z"/>
<path d="M4200 3214 c-316 -139 -743 -326 -947 -416 l-373 -163 0 -357 c0
-197 2 -358 5 -358 4 0 486 211 1565 685 l345 151 3 357 c2 283 0 357 -10 356
-7 -1 -272 -115 -588 -255z"/>
<path d="M0 2962 l0 -360 957 -560 c527 -308 960 -557 963 -552 3 4 210 98
460 208 l455 199 3 357 c1 224 -1 356 -7 356 -6 0 -215 -90 -466 -200 -251
-110 -458 -200 -460 -200 -2 0 -413 239 -912 531 -499 292 -927 542 -950 556
l-43 25 0 -360z"/>
<path d="M5315 2960 c-247 -109 -675 -297 -950 -417 l-500 -220 -3 -358 c-2
-337 -1 -357 15 -353 10 3 293 126 628 273 336 148 760 334 943 414 l333 146
2 358 c1 233 -1 357 -8 356 -5 0 -212 -90 -460 -199z"/>
<path d="M5805 2432 l-950 -418 -3 -361 -2 -361 112 50 c113 51 1169 514 1585
696 l223 97 0 358 c0 196 -3 357 -7 357 -5 -1 -435 -189 -958 -418z"/>
<path d="M2 2214 l3 -358 465 -272 465 -273 3 357 c1 195 -1 359 -5 363 -12
11 -895 527 -916 535 -16 6 -17 -15 -15 -352z"/>
<path d="M3260 2059 c-969 -427 -1341 -589 -1351 -589 -6 0 -211 117 -456 261
-245 143 -451 263 -459 266 -12 4 -14 -49 -14 -350 0 -271 3 -357 13 -365 6
-5 210 -126 452 -267 242 -142 446 -262 453 -267 8 -7 16 -7 25 0 6 5 296 134
642 286 347 152 771 338 943 414 l312 137 0 357 c0 197 -3 358 -7 357 -5 0
-253 -108 -553 -240z"/>
<path d="M4763 1974 c-197 -86 -1835 -805 -1855 -815 l-28 -12 0 -358 0 -358
38 16 c40 17 1613 706 1780 780 l102 46 0 358 c0 198 -1 359 -2 358 -2 0 -18
-7 -35 -15z"/>
<path d="M0 1473 l0 -358 928 -543 c510 -298 938 -549 952 -558 24 -14 43 -7
490 190 l465 205 3 355 c1 248 -1 356 -8 356 -6 0 -216 -90 -467 -200 l-456
-200 -948 555 c-522 305 -951 555 -954 555 -3 0 -5 -161 -5 -357z"/>
</g>
</svg>
