{
    "userName": "dahan",
    "userAge": 34,    
    "userIsRigh": false,
    "userHobbies": [
        {
        "name": "Soccer",
        "level": "not bad"
        },
        {
        "name": "Base Ball",
        "level":"horrible"
        
        }
    ]
}